{
    "defaultSeverity": "error",
    "extends":
    [
        "./tslint.json"
    ],
    "jsRules":
    {
        
    },
    "rules":
    {
        "match-default-export-name": true,
        "no-unsafe-any": true,
        "no-unused-variable": [true, {"ignore-pattern": "^_"}],
        "no-void-expression": [true, "ignore-arrow-function-shorthand"],
        "promise-function-async": true,
        "return-undefined": true
    },
    "rulesDirectory": []
}